LSAY_EDA
…
UNIQUE_STUDYING_TEACHERS

# A tibble: 29 × 12
   STIDSTD LBCZ087 LCCZ087 LDCZ087 LEC087 LFC087 LGC087 LHC087 LIC087 LJC088
     <dbl>   <dbl>   <dbl>   <dbl>  <dbl>  <dbl>  <dbl>  <dbl>  <dbl>  <dbl>
 1     921      NA      NA      NA     NA      0     NA     NA      1     NA
 2    1949      NA      NA      NA     NA     NA     NA      1     NA     NA
 3    2416      NA      NA      NA     NA     NA      1     NA     NA     NA
 4    2659      NA       0       1     NA     NA     NA      0     NA     NA
 5    2999      NA      NA      NA     NA     NA     NA     NA      1     NA
 6    3440      NA      NA      NA     NA     NA     NA      1     NA     NA
 7    3473      NA      NA      NA     NA     NA     NA      1     NA     NA
 8    3863      NA      NA      NA     NA     NA     NA      1     NA     NA
 9    4386      NA      NA      NA     NA     NA      1     NA     NA     NA
10    4504      NA      NA      NA     NA     NA      1     NA     NA     NA
# ℹ 19 more rows
# ℹ 2 more variables: LKC088 <dbl>, unique_teachers <lgl>
…
UNIQUE_LEGIT_TEACHERS

# A tibble: 144 × 10
   STIDSTD LDD025 LED025 LFD025 LGD025 LHD029 LID029 LJD029 LKD029
     <dbl>  <dbl>  <dbl>  <dbl>  <dbl>  <dbl>  <dbl>  <dbl>  <dbl>
 1     389      0      0      0      1      1      0      1      1
 2     577      0     NA      0      0     NA      1      1      0
 3     687      0      0      0     NA      0      1      0      0
 4     785     NA      0      0      0      0      0      1      1
 5     877      0      0      0      0      1      1      1      1
 6     961      0      0     NA      0      0      0      1      0
 7    1190      0      0      0      0      0      0      1      1
 8    1192      0      0      0      0     NA      1      1      1
 9    1205      0      0     NA      1      1      1      1      1
10    1327      0      0      0      0      0      0      0      1
# ℹ 134 more rows
# ℹ 1 more variable: legit_teachers <lgl>
…
UNIQUE_LEGIT_TEACHERS

# A tibble: 144 × 10
   STIDSTD LDD025 LED025 LFD025 LGD025 LHD029 LID029 LJD029 LKD029
     <dbl>  <dbl>  <dbl>  <dbl>  <dbl>  <dbl>  <dbl>  <dbl>  <dbl>
 1     389      0      0      0      1      1      0      1      1
 2     577      0     NA      0      0     NA      1      1      0
 3     687      0      0      0     NA      0      1      0      0
 4     785     NA      0      0      0      0      0      1      1
 5     877      0      0      0      0      1      1      1      1
 6     961      0      0     NA      0      0      0      1      0
 7    1190      0      0      0      0      0      0      1      1
 8    1192      0      0      0      0     NA      1      1      1
 9    1205      0      0     NA      1      1      1      1      1
10    1327      0      0      0      0      0      0      0      1
# ℹ 134 more rows
# ℹ 1 more variable: legit_teachers <lgl>
…
